<svg width="23" height="23" viewBox="0 0 23 23" fill="none" xmlns="http://www.w3.org/2000/svg">
<path d="M4.14527 9.4198C4.14527 11.3592 4.73679 13.1508 5.73498 14.6469L0.31887 20.0586C-0.106286 20.4836 -0.106286 21.1855 0.31887 21.6286L1.37252 22.6814C1.79767 23.1062 2.5001 23.1062 2.94374 22.6814L8.34137 17.2512C9.83866 18.2484 11.6317 18.8396 13.5726 18.8396C18.7669 18.8396 23 14.6099 23 9.4198C23 4.22967 18.7669 -1.85033e-07 13.5726 -4.12083e-07C8.37853 -6.39125e-07 4.14527 4.2112 4.14527 9.4198ZM19.303 9.4198C19.303 12.5782 16.7336 15.1456 13.5726 15.1456C10.4117 15.1456 7.84228 12.5782 7.84228 9.4198C7.84228 6.26139 10.4117 3.69404 13.5726 3.69404C16.7336 3.69404 19.303 6.26139 19.303 9.4198Z" fill="#202222"/>
</svg>
